; Engine configuration file.
; It's best edited using the editor UI and not directly,
; since the parameters that go here are not all obvious.
;
; Format:
;   [section] ; section goes between []
;   param=value ; assign values to parameters

config_version=3

[application]

config/name="seek"
run/main_scene="res://Menu Screen.tscn"
config/icon="res://icon.png"

[autoload]

globalVar="*res://globalVar.gd"
save="*res://Stages/Stage1/save.gd"

[display]

window/size/resizable=false

[rendering]

environment/default_clear_color=Color( 0, 0, 0, 1 )
