[gd_scene load_steps=3 format=2]

[ext_resource path="res://UniversalObjs/AutoInteract.gd" type="Script" id=1]

[sub_resource type="RectangleShape2D" id=1]

custom_solver_bias = 0.0
extents = Vector2( 20, 20 )

[node name="AutoInteract" type="Area2D"]

input_pickable = true
gravity_vec = Vector2( 0, 1 )
gravity = 98.0
linear_damp = 0.1
angular_damp = 1.0
audio_bus_override = false
audio_bus_name = "Master"
script = ExtResource( 1 )
item = null

[node name="Shape" type="CollisionShape2D" parent="." index="0"]

shape = SubResource( 1 )

[connection signal="body_exited" from="." to="." method="_on_AutoInteract_body_exited"]


