[gd_scene load_steps=6 format=2]

[ext_resource path="res://Sprites/torch/tile000.png" type="Texture" id=1]
[ext_resource path="res://Sprites/torch/tile001.png" type="Texture" id=2]
[ext_resource path="res://Sprites/torch/tile002.png" type="Texture" id=3]
[ext_resource path="res://lightShader/circleLightShader.png" type="Texture" id=4]


[sub_resource type="SpriteFrames" id=1]

animations = [ {
"frames": [ ExtResource( 1 ), ExtResource( 2 ), ExtResource( 3 ) ],
"loop": true,
"name": "default",
"speed": 5.0
} ]

[node name="torch" type="AnimatedSprite" index="0"]

frames = SubResource( 1 )
animation = "default"
frame = 1
playing = true
_sections_unfolded = [ "Transform" ]

[node name="Light2D" type="Light2D" parent="." index="0"]

position = Vector2( -1.26373, 13.4391 )
scale = Vector2( 3.55089, 3.58136 )
enabled = true
editor_only = false
texture = ExtResource( 4 )
offset = Vector2( 0, 0 )
texture_scale = 1.0
color = Color( 0.984375, 0.53806, 0.296082, 1 )
energy = 0.7
mode = 0
range_height = 0.0
range_z_min = -1024
range_z_max = 1024
range_layer_min = 0
range_layer_max = 0
range_item_cull_mask = 1
shadow_enabled = false
shadow_color = Color( 0, 0, 0, 0 )
shadow_buffer_size = 2048
shadow_gradient_length = 0.0
shadow_filter = 0
shadow_filter_smooth = 0.0
shadow_item_cull_mask = 1


