[gd_scene load_steps=2 format=2]

[ext_resource path="res://Tilesets/2018-08-07.png" type="Texture" id=1]

[node name="Node" type="Node"]

[node name="1" type="Sprite" parent="." index="0"]

position = Vector2( 16, 16 )
texture = ExtResource( 1 )
region_enabled = true
region_rect = Rect2( 0, 32, 32, 32 )
_sections_unfolded = [ "Region" ]

[node name="2" type="Sprite" parent="." index="1"]

position = Vector2( 16, 80 )
texture = ExtResource( 1 )
region_enabled = true
region_rect = Rect2( 32, 0, 32, 64 )
_sections_unfolded = [ "Region" ]

[node name="8" type="Sprite" parent="." index="2"]

position = Vector2( 32, 176 )
texture = ExtResource( 1 )
region_enabled = true
region_rect = Rect2( 64, 64, 64, 64 )
_sections_unfolded = [ "Region" ]

[node name="9" type="Sprite" parent="." index="3"]

position = Vector2( 112, 176 )
texture = ExtResource( 1 )
region_enabled = true
region_rect = Rect2( 160, 64, 32, 64 )
_sections_unfolded = [ "Region" ]

[node name="3" type="Sprite" parent="." index="4"]

position = Vector2( 80, 80 )
texture = ExtResource( 1 )
region_enabled = true
region_rect = Rect2( 64, 0, 32, 64 )
_sections_unfolded = [ "Region" ]

[node name="4" type="Sprite" parent="." index="5"]

position = Vector2( 144, 80 )
texture = ExtResource( 1 )
region_enabled = true
region_rect = Rect2( 96, 0, 32, 64 )
_sections_unfolded = [ "Region" ]

[node name="5" type="Sprite" parent="." index="6"]

position = Vector2( 144, 16 )
texture = ExtResource( 1 )
region_enabled = true
region_rect = Rect2( 128, 0, 32, 32 )
_sections_unfolded = [ "Region" ]

[node name="7" type="Sprite" parent="." index="7"]

position = Vector2( 80, 16 )
texture = ExtResource( 1 )
region_enabled = true
region_rect = Rect2( 32, 64, 32, 32 )
_sections_unfolded = [ "Region" ]

[node name="6" type="Sprite" parent="." index="8"]

position = Vector2( 208, 96 )
texture = ExtResource( 1 )
region_enabled = true
region_rect = Rect2( 128, 32, 32, 32 )
_sections_unfolded = [ "Region" ]


