[gd_scene load_steps=4 format=2]

[ext_resource path="res://Stages/Stage1/TransEffect/Fade.gd" type="Script" id=1]

[sub_resource type="Animation" id=1]

resource_name = "In"
length = 1.0
loop = false
step = 0.1
tracks/0/type = "value"
tracks/0/path = NodePath("Fade/ColorRect:color")
tracks/0/interp = 1
tracks/0/loop_wrap = true
tracks/0/imported = false
tracks/0/enabled = true
tracks/0/keys = {
"times": PoolRealArray( 0, 0.5 ),
"transitions": PoolRealArray( 1, 1 ),
"update": 0,
"values": [ Color( 0, 0, 0, 1 ), Color( 0, 0, 0, 0 ) ]
}

[sub_resource type="Animation" id=2]

resource_name = "Out"
length = 0.5
loop = false
step = 0.1
tracks/0/type = "value"
tracks/0/path = NodePath("Fade/ColorRect:color")
tracks/0/interp = 1
tracks/0/loop_wrap = true
tracks/0/imported = false
tracks/0/enabled = true
tracks/0/keys = {
"times": PoolRealArray( 0, 0.5 ),
"transitions": PoolRealArray( 1, 1 ),
"update": 0,
"values": [ Color( 0, 0, 0, 0 ), Color( 0, 0, 0, 1 ) ]
}

[node name="Fade" type="AnimationPlayer"]

root_node = NodePath("..")
autoplay = "In"
playback_process_mode = 1
playback_default_blend_time = 0.0
playback_speed = 1.0
anims/In = SubResource( 1 )
anims/Out = SubResource( 2 )
blend_times = [  ]
script = ExtResource( 1 )
_sections_unfolded = [ "Pause", "Playback Options" ]

[node name="ColorRect" type="ColorRect" parent="." index="0"]

anchor_left = 0.0
anchor_top = 0.0
anchor_right = 0.0
anchor_bottom = 0.0
margin_left = -4096.0
margin_top = -4096.0
margin_right = 4096.0
margin_bottom = 4096.0
rect_pivot_offset = Vector2( 0, 0 )
rect_clip_content = false
mouse_filter = 0
mouse_default_cursor_shape = 0
size_flags_horizontal = 1
size_flags_vertical = 1
color = Color( 0, 0, 0, 1 )
_sections_unfolded = [ "Anchor", "Margin", "Material", "Rect", "Theme" ]

[connection signal="animation_finished" from="." to="." method="_on_Fade_animation_finished"]


