[gd_resource type="TileSet" load_steps=2 format=2]

[ext_resource path="res://Tilesets/2018-08-07.png" type="Texture" id=1]

[resource]

0/name = "1"
0/texture = ExtResource( 1 )
0/tex_offset = Vector2( 0, 0 )
0/modulate = Color( 1, 1, 1, 1 )
0/region = Rect2( 0, 32, 32, 32 )
0/is_autotile = false
0/occluder_offset = Vector2( 16, 16 )
0/navigation_offset = Vector2( 16, 16 )
0/shapes = [  ]
1/name = "2"
1/texture = ExtResource( 1 )
1/tex_offset = Vector2( 0, 0 )
1/modulate = Color( 1, 1, 1, 1 )
1/region = Rect2( 32, 0, 32, 64 )
1/is_autotile = false
1/occluder_offset = Vector2( 16, 32 )
1/navigation_offset = Vector2( 16, 32 )
1/shapes = [  ]
2/name = "8"
2/texture = ExtResource( 1 )
2/tex_offset = Vector2( 0, 0 )
2/modulate = Color( 1, 1, 1, 1 )
2/region = Rect2( 64, 64, 64, 64 )
2/is_autotile = false
2/occluder_offset = Vector2( 32, 32 )
2/navigation_offset = Vector2( 32, 32 )
2/shapes = [  ]
3/name = "9"
3/texture = ExtResource( 1 )
3/tex_offset = Vector2( 0, 0 )
3/modulate = Color( 1, 1, 1, 1 )
3/region = Rect2( 160, 64, 32, 64 )
3/is_autotile = false
3/occluder_offset = Vector2( 16, 32 )
3/navigation_offset = Vector2( 16, 32 )
3/shapes = [  ]
4/name = "3"
4/texture = ExtResource( 1 )
4/tex_offset = Vector2( 0, 0 )
4/modulate = Color( 1, 1, 1, 1 )
4/region = Rect2( 64, 0, 32, 64 )
4/is_autotile = false
4/occluder_offset = Vector2( 16, 32 )
4/navigation_offset = Vector2( 16, 32 )
4/shapes = [  ]
5/name = "4"
5/texture = ExtResource( 1 )
5/tex_offset = Vector2( 0, 0 )
5/modulate = Color( 1, 1, 1, 1 )
5/region = Rect2( 96, 0, 32, 64 )
5/is_autotile = false
5/occluder_offset = Vector2( 16, 32 )
5/navigation_offset = Vector2( 16, 32 )
5/shapes = [  ]
6/name = "5"
6/texture = ExtResource( 1 )
6/tex_offset = Vector2( 0, 0 )
6/modulate = Color( 1, 1, 1, 1 )
6/region = Rect2( 128, 0, 32, 32 )
6/is_autotile = false
6/occluder_offset = Vector2( 16, 16 )
6/navigation_offset = Vector2( 16, 16 )
6/shapes = [  ]
7/name = "7"
7/texture = ExtResource( 1 )
7/tex_offset = Vector2( 0, 0 )
7/modulate = Color( 1, 1, 1, 1 )
7/region = Rect2( 32, 64, 32, 32 )
7/is_autotile = false
7/occluder_offset = Vector2( 16, 16 )
7/navigation_offset = Vector2( 16, 16 )
7/shapes = [  ]
8/name = "6"
8/texture = ExtResource( 1 )
8/tex_offset = Vector2( 0, 0 )
8/modulate = Color( 1, 1, 1, 1 )
8/region = Rect2( 128, 32, 32, 32 )
8/is_autotile = false
8/occluder_offset = Vector2( 16, 16 )
8/navigation_offset = Vector2( 16, 16 )
8/shapes = [  ]

