[gd_scene load_steps=6 format=2]

[ext_resource path="res://UniversalObjs/Door.gd" type="Script" id=1]
[ext_resource path="res://Sprites/door/door1_closed.png" type="Texture" id=2]
[ext_resource path="res://Sprites/door/door1_opened.png" type="Texture" id=3]

[sub_resource type="SpriteFrames" id=1]

animations = [ {
"frames": [ ExtResource( 2 ) ],
"loop": false,
"name": "closed",
"speed": 1.0
}, {
"frames": [ ExtResource( 3 ) ],
"loop": false,
"name": "opened",
"speed": 1.0
} ]

[sub_resource type="RectangleShape2D" id=2]

custom_solver_bias = 0.0
extents = Vector2( 19, 40 )

[node name="Door" type="Area2D"]

input_pickable = true
gravity_vec = Vector2( 0, 1 )
gravity = 98.0
linear_damp = 0.1
angular_damp = 1.0
audio_bus_override = false
audio_bus_name = "Master"
script = ExtResource( 1 )
effectName = ""
nextScene = null

[node name="AnimatedSprite" type="AnimatedSprite" parent="." index="0"]

frames = SubResource( 1 )
animation = "closed"

[node name="CollisionShape2D2" type="CollisionShape2D" parent="." index="1"]

position = Vector2( 0, -7 )
shape = SubResource( 2 )


